rang: prosečni broj koautora | broj objavljenih radova
#1: Aleksandar Milić | 0.00 | 0
#2: Aleksandar Nešković | 2.65 | 31
#3: Aleksandar Rakić | 1.67 | 18
#4: Aleksandar Savić | 1.56 | 9
#5: Aleksandar Stanković | 1.00 | 1
#6: Aleksandar Tatalović | 0.00 | 0
#7: Aleksandra Krneta | 8.00 | 1
#8: Aleksandra Lekić | 0.83 | 6
#9: Aleksandra Marjanović | 3.00 | 9
#10: Aleksandra Pavasović | 0.00 | 0
#11: Aleksandra Smiljanić | 1.76 | 21
#12: Ana Gavrovska | 3.77 | 13
#13: Angelina Totović | 4.09 | 11
#14: Antonije Đorđević | 3.83 | 47
#15: Bogdan Brković | 3.00 | 1
#16: Bojan Furlan | 4.57 | 7
#17: Bojana Mihailović | 2.00 | 3
#18: Bojana Škrbić | 1.50 | 2
#19: Boris Despot | 4.00 | 1
#20: Borislav Jeftenić | 2.56 | 18
#21: Borivoj Lazić | 0.00 | 0
#22: Boško Nikolić | 3.32 | 19
#23: Božidar Stanić | 0.00 | 0
#24: Branimir Reljin | 2.76 | 51
#25: Branko Kolundžija | 2.20 | 20
#26: Branko Kovačević | 2.20 | 15
#27: Branko Malešević | 1.12 | 26
#28: Branko Marović | 1.00 | 1
#29: Bratislav Iričanin | 1.93 | 43
#30: Danijela Branković | 0.00 | 0
#31: Darko Nadić | 0.00 | 0
#32: Darko Šošić | 1.73 | 11
#33: Dejan Drajić | 2.00 | 1
#34: Dejan Gvozdić | 2.41 | 41
#35: Dejan Popović | 3.03 | 76
#36: Dejan Raković | 2.31 | 39
#37: Dejan Tošić | 2.43 | 30
#38: Dejan Ćirić | 3.00 | 1
#39: Dimitrije Kotur | 1.50 | 2
#40: Divna Vuksanović | 2.00 | 1
#41: Dragan Bojić | 3.00 | 15
#42: Dragan Mihić | 1.83 | 6
#43: Dragan Milanović | 0.00 | 0
#44: Dragan Milićev | 1.75 | 16
#45: Dragan Olćan | 4.64 | 14
#46: Dragan Petrović | 0.00 | 0
#47: Dragan Stanković | 0.00 | 0
#48: Dragan Vasiljević | 0.00 | 0
#49: Dragana Šumarac Pavlović | 2.38 | 13
#50: Dragomir El Mezeni | 0.00 | 0
#51: Dragutin Salamon | 1.60 | 5
#52: Dražen Drašković | 3.25 | 4
#53: Dunja Živanović | 0.00 | 0
#54: Dušan Božilov | 0.00 | 0
#55: Dušan Drajić | 2.00 | 9
#56: Dušan Grujić | 2.14 | 7
#57: Dušan Mikičić | 0.00 | 0
#58: Dušan Starčević | 0.00 | 0
#59: Dušan Stipanović | 1.50 | 8
#60: Filip Hadžić | 0.00 | 0
#61: Goran Dobrić | 1.88 | 8
#62: Goran Kvaščev | 2.73 | 11
#63: Goran Marković | 1.67 | 15
#64: Goran Mašanović | 5.20 | 5
#65: Goran Savić | 3.00 | 3
#66: Gradimir Milovanović | 0.00 | 0
#67: Grozdan Petrović | 0.00 | 0
#68: Igor Anđelković | 6.00 | 1
#69: Igor Tartalja | 2.22 | 9
#70: Irena Marković | 0.00 | 0
#71: Irini Reljin | 2.73 | 60
#72: Iva Babić | 1.57 | 14
#73: Ivan Popović | 1.92 | 13
#74: Ivan Škokljev | 1.23 | 13
#75: Ivana Jovović | 1.60 | 10
#76: Jasna Crnjanski | 3.08 | 25
#77: Jelena Dinkić | 5.00 | 1
#78: Jelena Lošić | 0.00 | 0
#79: Jelena Popović Božović | 2.25 | 4
#80: Jelena Radovanović | 3.38 | 95
#81: Jelena Spremić | 0.00 | 0
#82: Jelena Stojković | 2.00 | 2
#83: Jelena Ćertić | 1.69 | 13
#84: Jelica Protić | 3.29 | 14
#85: Jelisaveta Krstivojević | 1.29 | 7
#86: Jovan Cvetić | 2.60 | 15
#87: Jovan Elazar | 3.50 | 10
#88: Jovan Mikulović | 1.89 | 18
#89: Jovan Radunović | 2.50 | 24
#90: Jovan Trifunović | 1.90 | 10
#91: Jovan Đorđević | 3.31 | 13
#92: Jovana Gojanović | 0.00 | 0
#93: Jovana Perović | 0.00 | 0
#94: Jovica Milanović | 2.00 | 2
#95: Katarina Milenković | 2.00 | 1
#96: Kosta Jovanović | 3.82 | 11
#97: Koviljka Stanković | 3.22 | 76
#98: Lazar Cokić | 3.00 | 1
#99: Lazar Karbunar | 2.00 | 1
#100: Lazar Saranovac | 2.00 | 18
#101: Leposava Ristić | 2.56 | 9
#102: Maja Vukasović | 0.00 | 0
#103: Majda Petrić | 3.33 | 3
#104: Marija Janković | 4.00 | 1
#105: Marija Punt | 6.25 | 4
#106: Marija Rašajski | 1.57 | 7
#107: Marija Stevanović | 3.54 | 13
#108: Marko Barjaktarović | 2.17 | 6
#109: Marko Krstić | 2.58 | 19
#110: Marko Mićović | 0.00 | 0
#111: Marko Mišić | 2.29 | 7
#112: Milan Bebić | 2.55 | 11
#113: Milan Bjelica | 0.96 | 25
#114: Milan Ignjatović | 3.67 | 3
#115: Milan Ilić | 2.58 | 36
#116: Milan Janković | 2.20 | 5
#117: Milan Mašanović | 4.50 | 2
#118: Milan Merkle | 0.75 | 8
#119: Milan Milosavljević | 2.33 | 6
#120: Milan Ponjavić | 1.60 | 5
#121: Milan Prokin | 1.44 | 9
#122: Milan Savić | 1.58 | 12
#123: Milan Tadić | 2.56 | 39
#124: Milan Utvić | 0.00 | 0
#125: Milana Prodanov | 0.00 | 0
#126: Milena Slavić | 0.00 | 0
#127: Milenko Đurić | 1.40 | 15
#128: Mileta Žarković | 1.60 | 10
#129: Milica Janković | 4.90 | 10
#130: Milica Jevtić | 3.00 | 2
#131: Milica Jovalekić | 0.00 | 0
#132: Milica Savatović | 1.50 | 2
#133: Milić Stojić | 1.00 | 1
#134: Miljko Erić | 1.75 | 8
#135: Milka Potrebić | 1.88 | 17
#136: Milo Tomašević | 2.07 | 14
#137: Milovan Majstorović | 0.00 | 0
#138: Miloš Bjelić | 2.33 | 3
#139: Miloš Cvetanović | 3.64 | 11
#140: Miloš Ječmenica | 2.50 | 2
#141: Miloš Nedeljković | 1.40 | 5
#142: Miloš Vujisić | 3.28 | 61
#143: Miloš Đurić | 0.18 | 22
#144: Miodrag Popović | 3.20 | 5
#145: Miodrag Tasić | 2.71 | 7
#146: Miodrag Zlatanović | 1.85 | 13
#147: Miomir Kostić | 2.05 | 22
#148: Miomir Mijić | 2.00 | 17
#149: Mirjana Popović | 3.46 | 59
#150: Mirjana Simić Pejović | 1.17 | 12
#151: Mirjana Stojanović | 1.80 | 10
#152: Mirko Jovanović | 2.00 | 1
#153: Miroslav Bojović | 4.33 | 6
#154: Miroslav Dukić | 1.40 | 35
#155: Miroslav Krstić | 3.50 | 2
#156: Miroslav Lutovac | 1.56 | 9
#157: Miroslav Mataušek | 1.09 | 11
#158: Mladen Koprivica | 3.45 | 11
#159: Mladen Terzić | 2.50 | 6
#160: Momčilo Dragović | 0.00 | 0
#161: Nadica Miljković | 3.92 | 12
#162: Nataša Maksić | 2.33 | 3
#163: Nataša Nešković | 2.46 | 26
#164: Nataša Ćirović | 1.50 | 2
#165: Nemanja Kojić | 2.50 | 2
#166: Nemanja Čukarić | 3.15 | 13
#167: Nenad Cakić | 2.23 | 13
#168: Nenad Jovičić | 4.11 | 9
#169: Nenad Vitorović | 0.00 | 0
#170: Nevena Miletić | 0.00 | 0
#171: Nikola Basta | 0.00 | 0
#172: Nikola Knežević | 0.00 | 0
#173: Nikola Petrović | 0.00 | 0
#174: Nikola Popov | 3.50 | 6
#175: Nikola Rajaković | 1.57 | 42
#176: Nikola Vuković | 2.67 | 6
#177: Nina Polovina | 0.67 | 6
#178: Olivera Ciraj-Bjelac | 3.43 | 42
#179: Pavle Vuletić | 1.67 | 6
#180: Petar Matavulj | 2.70 | 33
#181: Peđa Mihailović | 4.07 | 14
#182: Predrag Ivaniš | 1.97 | 29
#183: Predrag Marinković | 2.78 | 9
#184: Predrag Osmokrović | 2.97 | 97
#185: Predrag Pejović | 1.28 | 25
#186: Predrag Stefanov | 1.57 | 7
#187: Predrag Tadić | 2.60 | 5
#188: Radivoje Biljić | 3.00 | 1
#189: Radivoje Đurić | 2.56 | 9
#190: Radovan Radosavljević | 3.76 | 17
#191: Ranko Popović | 2.80 | 5
#192: Sanja Delčev | 0.00 | 0
#193: Sanja Vraneš | 0.00 | 0
#194: Sanja Vujnović | 3.20 | 5
#195: Saša Stojanović | 2.20 | 5
#196: Siniša Ješić | 1.93 | 15
#197: Slavko Gajin | 3.71 | 7
#198: Slobodan Jovičić | 2.31 | 13
#199: Slobodan Petričević | 3.33 | 21
#200: Slobodan Savić | 3.25 | 8
#201: Slobodan Vukosavić | 2.33 | 43
#202: Snežana Popovčić - Avrić | 0.00 | 0
#203: Sofija Purić | 2.00 | 1
#204: Srbijanka Turajlić | 2.00 | 1
#205: Srđan Brkić | 2.25 | 4
#206: Srđan Srdić | 1.83 | 6
#207: Srđan Stanković | 1.60 | 15
#208: Stefan Milovanović | 0.00 | 0
#209: Stefan Tubić | 0.00 | 0
#210: Stevica Graovac | 1.40 | 5
#211: Strahinja Janković | 1.00 | 1
#212: Tamara Koledin | 1.22 | 9
#213: Tanja Dinić | 0.25 | 8
#214: Tanja Tankosić Matejić | 0.00 | 0
#215: Tatjana Lutovac | 1.33 | 6
#216: Tomislav Rajić | 1.67 | 3
#217: Tomislav Šekara | 1.70 | 30
#218: Trajko Petrović | 1.11 | 9
#219: Uroš Radenković | 0.00 | 0
#220: Veljko Milutinović | 2.56 | 45
#221: Veljko Papić | 2.67 | 3
#222: Veljko Potkonjak | 3.14 | 37
#223: Vesna Blagojević | 2.00 | 10
#224: Vitomir Milanović | 3.54 | 137
#225: Vladimir Arsoski | 3.07 | 14
#226: Vladimir Blagojević | 7.93 | 42
#227: Vladimir Jocović | 0.00 | 0
#228: Vladimir Petrović | 2.75 | 8
#229: Vladimir Rajović | 9.25 | 12
#230: Vladimir Slavković | 2.50 | 2
#231: Vladimir Terzija | 1.14 | 7
#232: Vujo Drndarević | 1.27 | 15
#233: Zaharije Radivojević | 3.64 | 11
#234: Zlatan Stojković | 1.56 | 18
#235: Zoran Jovanović | 2.62 | 16
#236: Zoran Lazarević | 3.09 | 11
#237: Zoran Petrović | 2.75 | 12
#238: Zoran Radaković | 2.00 | 28
#239: Zoran Radojević | 1.18 | 17
#240: Zoran Radosavljević | 1.56 | 9
#241: Zoran Stojanović | 1.18 | 11
#242: Zoran Čiča | 0.56 | 9
#243: Ćemal Dolićanin | 3.83 | 6
#244: Đorđe Paunović | 2.67 | 6
#245: Đorđe Đurđević | 3.56 | 9
#246: Đurađ Budimir | 2.56 | 9
#247: Žarko Barbarić | 1.64 | 11
#248: Žarko Stanisavljević | 3.56 | 9
#249: Željko Aleksić | 0.00 | 3
#250: Željko Janićijević | 2.00 | 1
#251: Željko Đurišić | 1.80 | 30
#252: Željko Đurović | 2.38 | 29
#253: Živojin Šuštran | 2.00 | 3
